identifiantRof;nom;nomFormeRejet;description;statutJuridique;siret;arkBnf;frBnf;isni;catalogageSourceAgence;catalogageSourceDate;catalogageSourcePays;siteWeb
20988;Opéra-Théâtre Eurométropole Metz;;<p>L’Opéra-Théâtre de Metz Métropole, théâtre à l’italienne de 750 places, est un centre de production de spectacle vivant pour des spectacles lyriques, chorégraphiques et théâtraux, structuré autour de 40 artistes permanents (danseurs, choristes, pianistes, maître de ballet et chef de chœur) et 31 artisans et techniciens du spectacle (peintres, menuisiers, tapissier, couturiers, éclairagistes etc.).</p> <p>Avec 15 productions, en terme de création et d’accueil, par saison, il offre au public une programmation diversifiée allant du répertoire classique aux œuvres contemporaines.</p>;REGCOM;20003986500080;http://ark.bnf.fr/ark:/12148/cb147123442;FRBNF14712344;;36382;20150915;FR;https://www.tous-a-lopera.fr/opera-theatre-de-metz-metropole.aspx
21822;Opéra Nice Côte d'Azur;;"<p>Bâtiment classé monument historique, l’Opéra Nice Côte d’Azur dispose d’une salle comprenant 1073 places et d’un centre de production, la Diacosmie, qui regroupe la fabrication et le stockage des décors et des costumes; l’Orchestre Philharmonique de Nice, le Ballet Nice Côte d'Azur et les Chœurs bénéficient ainsi de leurs propres salles de répétitions. À chaque saison, une centaine de représentations de très grande qualité sont programmées.</p> <p>L’Opéra Nice Côte d’Azur, dont la direction artistique est assurée, depuis le 1er décembre 2019, par Bertrand Rossi, jouit d’ailleurs d’un rayonnement national et international. L’Orchestre Philharmonique de Nice, sous la direction musicale de György G. Rath, compte 89 musiciens ; le Ballet Nice Méditerranée, sous l’impulsion de son Directeur artistique, Eric Vu-An, compte quant à lui 26 danseurs, le Chœur dirigé par Giulio Maganini, rassemble 37 choristes, quant au Chœur d’enfants dirigé par Philippe Négrel, il regroupe 40 enfants. Par ailleurs, l’Opéra Nice Côte d’Azur organise des actions culturelles et sociales à destination des élèves et des étudiants.</p>";REGIAUF;21060088802359;http://ark.bnf.fr/ark:/12148/cb13195973h;FRBNF13195973;http://isni.org/isni/0000000099513164;36382;20150915;FR;https://www.tous-a-lopera.fr/opera-nice-cote-dazur.aspx
23901;Opéra de Toulon Provence Méditerranée;;<p>L’Opéra de Toulon, inauguré en 1862, est un des rares opéras du second Empire à avoir conservé son apparence d’origine. Sa gestion est confiée à un Etablissement Public de Coopération Culturelle créé en 2004 par la Communauté d’Agglomération Toulon Provence Méditerranée et le Conseil Général du Var (aujourd’hui respectivement : la métropole Toulon Provence Méditerranée et le Conseil départemental du Var). Claude-Henri Bonnet en est le directeur général et artistique. Jurjen Hempel, le directeur musical.</p> <p>Plus de 200 personnes y travaillent en permanence. Onze corps de métier le composent : artistes permanents de l'orchestre, du chœur et du ballet, techniciens, décorateurs, costumières, coiffeurs, maquilleuses, production et régies, sécurité, accueil, administration et communication.</p> <p>Depuis sa restructuration en 2003, l’Opéra de Toulon a rejoint le cercle des grandes institutions lyriques françaises au sein de la ROF (Réunion des Opéras de France). Il crée de nouvelles productions et participe à de nombreuses coproductions avec le réseau lyrique français et européen : Festival d’Aix en Provence, Opéra Comique, Grand Théâtre de Provence, Opéras de Leipzig, Lucca, Savona, Lausanne, Monte Carlo, Marseille, Avignon, St Etienne, Nancy, Montpellier, Bordeaux...</p> <p>De nouvelles productions originales ont jalonné la programmation. Ariadne auf Naxos, Les Mamelles de Tirésias, Orphée et Eurydice, L’Enfance du Christ, Katia Kabanova, Mam’zelle Nitouche et les créations en France de Street Scene (Weill), Follies (Sondheim) et Wonderful Town (Bernstein) donc la captation DVD a remporté le Grand Prix de l’Académie Charles Cros.</p> <p>Parmi les objectifs d’ouverture au plus large public, le nouvel Opéra de Toulon s’est attaché en particulier à développer et optimiser son action culturelle et son image auprès du jeune public. Une politique de décentralisation a été également mise en place dans les différentes communes de notre territoire et du département du Var.</p>;EPCC;45180735800028;http://ark.bnf.fr/ark:/12148/cb15047524r;FRBNF15047524;;36382;20150915;FR;https://www.tous-a-lopera.fr/opera-de-toulon.aspx
30380;Opéra de Vichy;;<p>Depuis maintenant plus d'un siècle, la salle de l'Opéra de Vichy, pur joyau de style Art Nouveau, accueille artistes et spectateurs dans un cadre unique.</p> <p>Le 2 juin 1901, « Aïda » de Verdi, est le premier opéra donné pour l’inauguration du nouveau Théâtre Opéra conçu par Charles Lecoeur, architecte du ministère de l’Intérieur, assisté de Lucien Woog et de Jules Simon, architecte de La Compagnie Fermière. La décoration intérieure, réalisée par le peintre, illustrateur et décorateur polonais Léon Rudnicki, n’est achevée que pour l’inauguration officielle le 31 mars 1903, en présence d’Emile Maruéjouls, ministre des Travaux publics.</p> <p>Depuis sa rénovation en 1995, l’Opéra organise plus de quatre-vingts événements tout au long de l’année. Opéras, concerts, théâtre musical, jazz, musiques du monde se croisent en juillet et août lors de propositions originales dans la salle de l’Opéra, dans la ville de Vichy et dans l'agglomération.</p> <p>De fin septembre à mi-mai, l’Opéra de Vichy propose une riche saison pluridisciplinaire faisant la part belle au théâtre, la danse, l’opéra et aux musiques acoustiques et amplifiées.</p> <p>L’Opéra de Vichy ambitionne de redevenir un lieu de création et d’accompagnement des projets d’ensembles et compagnies régionales, nationales et internationales.</p>;EPCC;77906643000058;https://catalogue.bnf.fr/ark:/12148/cb14498588t;FRBNF14498588;https://isni.org/isni/0000000106436217;36382;20170530;FR;https://www.tous-a-lopera.fr/opera-de-vichy.aspx
36233;Clermont Auvergne Opéra;;<p>Créé en 1983, le Centre lyrique Clermont-Auvergne, devenu en 2020 le Clermont Auvergne Opéra a pour principales missions la production et la diffusion d’œuvres lyriques à Clermont-Ferrand, en région et en France, associées à une intense médiation en direction des jeunes.</p> <p>La saison lyrique programmée depuis 1999 par le Clermont Auvergne Opéra mêle oeuvres du répertoire et créations. Alliant qualité, diversité et originalité, avec un taux de remplissage de 86% et 29% de jeunes de moins de 27 ans dans son public, elle est attentive aux débuts de jeunes artistes par le biais d’un Concours international de chant biennal, dont la prochaine édition aura lieu en 2021 et sera pour la première fois partagée entre Vichy et Clermont-Ferrand. La saison s’ouvre également à des personnalités reconnues internationalement dans des répertoires variés allant de la période baroque à la musique de notre temps. Le Clermont Auvergne Opéra diffuse ses productions en France et en Europe par le biais des coproductions et a pour principaux partenaires l’Orchestre national d’Auvergne dirigé par Roberto Forés Veses, Opéra Nomade dirigé par Amaury du Closel, Opéra Eclaté dirigé par Olivier Desbordes, le Centre Français de Promotion Lyrique présidé par Raymond Duffaut ainsi que les Opéras français avec lesquels il partage d’importants projets comme Il Viaggio a Reims, Don Pasquale, L’Ombre de Venceslao , l’Enlèvement au sérail, Cavalleria Rusticana, Pagliacci, ou encore la Sonnambula...</p>;ASSO;;http://ark.bnf.fr/ark:/12148/cb145489495;FRBNF14548949;;36382;20180312;FR;https://www.tous-a-lopera.fr/clermont-auvergne-opera.aspx
36676;Théâtre Impérial de Compiègne;;<p>Un théâtre d’exception et un centre de production lyrique des Hauts-de-France, un écrin acoustique unique au monde pour l’opéra, les concerts, le théâtre musical.</p> <p>Joyau architectural, le Théâtre Impérial de Compiègne est exceptionnel par son volume et par ses qualités acoustiques. Le célèbre chef d’orchestre Carlo Maria Giulini considérait l’acoustique de la salle « comme une des plus parfaites au monde, plus accomplie que celle du Musikverein de Vienne, pourtant la référence en la matière ».</p> <p>Haut lieu de la musique et de l’art lyrique, le Théâtre Impérial de Compiègne donne à voir et à entendre le répertoire de l’époque baroque à nos jours, et accorde une place toute particulière à la voix et à la musique française. Sous la direction artistique d’Éric Rouchaud et fort d’un projet ambitieux, le Théâtre Impérial, Centre de production lyrique des Hauts-de-France, produit ou participe à la production d’opéras et de spectacles de théâtre musical. Chaque saison, il présente des solistes et des ensembles musicaux de premier ordre, tout comme il soutient l’émergence de jeunes talents. Sa notoriété et son succès auprès du public comme des artistes reposent notamment sur des résidences artistiques et sur sa programmation ouverte à la diversité des formes musicales et lyriques (concert, récital, musique de chambre et symphonique, opéra…). Inscrit dans les réseaux de production et de diffusion nationale, le Théâtre Impérial est membre fondateur de la co[opéra]tive et membre associé de la Réunion des Opéras de France (ROF). Il est également à l’initiative du Festival En Voix !, le seul festival d’art lyrique et de chant choral à l’échelle d’une région entière en France.</p>;ASSO;35313778900015;http://ark.bnf.fr/ark:/12148/cb15511952w;FRBNF15511952;;36382;20180408;FR;https://www.tous-a-lopera.fr/theatres-de-compiegne-fr.aspx
4011;Opéra-Comique;;<p>Fondé en 1715, l’Opéra Comique est l’une des plus anciennes institutions culturelles de France. Son répertoire original mêle le théâtre au chant lyrique et a produit les chefs-d’œuvre français les plus joués au monde aujourd’hui : La Damnation de Faust de Berlioz, Carmen de Bizet, Lakmé de Delibes, Les Contes d’Hoffmann d’Offenbach, Manon de Massenet, Pelléas et Mélisande de Debussy… Il est inscrit sur la liste des théâtres nationaux en 2005 et placé sous la direction de Olivier Mantei depuis 2015.</p> <p>Si le répertoire, le baroque et la création restent au cœur sa programmation, les saisons de l’Opéra Comique sont placées sous le signe de l’audace tant en termes artistiques que d’ouverture aux nouveaux publics avec l'inauguration en 2019 des séances Relax. Parmi ses actions on peut citer Mon premier Festival d’opéra créé en 2018, regroupant trois spectacles lyriques dédiés aux familles ainsi que la naissance en 2016 de La Maîtrise populaire de l’Opéra Comique, axe fort de l’institution dans l'éducation aux arts lyriques, et qui accueille une centaine d’élèves en formation à horaires aménagés du CM1 à la terminale.</p>;EPIC;;http://ark.bnf.fr/ark:/12148/cb124192618;FRBNF12419261;http://isni.org/isni/0000000121136706;36382;20150914;FR;https://www.tous-a-lopera.fr/theatre-national-de-lopera-comique.aspx
4012;Opéra de Dijon;;<p>Lieu incontournable de création et production de la vie musicale et lyrique européenne, l’Opéra de Dijon s’inscrit désormais comme carrefour de l’Europe. Avec sa programmation exigeante et ses choix artistiques innovants, l’Opéra de Dijon s’est hissé parmi les grandes scènes lyriques. L’Opéra de Dijon rassemble depuis 2008 deux salles prestigieuses : L'Auditorium, salle contemporaine, et le Grand Théâtre, salle à l’italienne. L’Auditorium et le Grand théâtre mènent, en complémentarité, des productions d’art lyrique, de musique symphonique, de théâtre ou de danse. Chaque saison, l’Opéra de Dijon accueille près de 70 000 spectateurs sur plus de 100 levers de rideau.</p> <p>Depuis 2017, cette exigence d’excellence est désormais reconnue et soutenue par le label Théâtre Lyrique d'Interêt National qui permet à l’Opéra de Dijon de poursuivre et d’amplifier sa politique de créations et de résidences, d’innovation et de partenariats, d’éducation artistique et culturelle et d’ouverture à tous les publics.</p>;EPIC;44340624400022;http://ark.bnf.fr/ark:/12148/cb13565291k;FRBNF13565291;;36382;20150914;FR;https://www.tous-a-lopera.fr/opera-de-dijon.aspx
4014;Opéra de Marseille;;"<p>Anciennement « Théâtre Beauvau », du nom du Maréchal Prince gouverneur de Provence, l’Opéra de Marseille, détruit par un incendie en 1919, est reconstruit et inauguré en 1924. Théâtre de style Art Déco, il est classé « Monument historique » en 1997. L’Opéra de Marseille est l’une des plus grandes scènes françaises. De stature internationale, il propose au public, à côté d’œuvres lyriques du grand répertoire, la découverte d’opéras peu joués ou méconnus (L’Héritière, L’Aiglon, La Neige en Août, Sampiero Corso, Maria Golovín, Colombe, Salammbô, The Saint of Bleecker Street, etc.) ainsi qu’une saison de concerts dont le succès ne cesse de croître.</p> <p>Doté d’un orchestre de 88 musiciens, d’un cadre de chœur et d’une structure professionnelle aux compétences multiples (atelier de décors, atelier de couture, etc.), l’Opéra de Marseille se présente comme un lieu de création originale.</p> <p>Depuis 2014, l'Opéra de Marseille et le Théâtre de l'Odéon sont en direction commune. Unique scène française à proposer une saison d'opérette, le Théâtre de l'Odéon de Marseille est un véritable ""conservatoire"" vivant de l'opérette.</p>";REGIM;21130055305387;http://ark.bnf.fr/ark:/12148/cb12485835v;FRBNF12485835;https://isni.org/isni/0000000120663539;36382;20150914;FR;https://www.tous-a-lopera.fr/opera-de-marseille.aspx
4017;Opéra de Reims;;<p>Construit en 1873, détruit lors de la 1ère guerre mondiale, l’Opéra de Reims est reconstruit intérieurement dans le style Art Déco. Son répertoire, basé sous le signe de l’ouverture, balaye les époques du baroque au contemporain. Il accueille en résidence l’ARCAL, compagnie lyrique nationale, dont les spectacles originaux irriguent le territoire régional. Dans le même esprit des partenariats ont été mis en place avec Ballet Biarritz, centre chorégraphique national et Césaré, studio de création musicale.</p> <p>Le projet « L’Enfant à l’opéra » tend à ouvrir la maison aux jeunes générations : une programmation spécifique jeune public côtoie une « École du spectateur » dont l’objectif est de préparer les enfants aux spectacles du répertoire. A l’Opéra de Reims, un spectateur sur trois à moins de 27 ans.</p>;SARL;80362332100012;http://ark.bnf.fr/ark:/12148/cb146590390;FRBNF14659039;;36382;20150914;FR;
4018;Opéra de Rouen Normandie;;<p>Créé en 1998, l’Opéra de Rouen Normandie, où travaillent plus d’une centaine de salariés permanents, a pour mission la production et la diffusion d’ouvrages lyriques et la programmation au Théâtre des Arts de Rouen d’opéras, de concerts et de spectacles de danse. Composé d’un noyau permanent de 39 musiciens et d’un directeur musical, l’Orchestre de l’Opéra de Rouen Normandie aborde un large répertoire. Un chœur non permanent et un ensemble prestigieux- Accentus - complètent les forces artistiques de l’institution.</p>;EPCC;45076193700017;http://ark.bnf.fr/ark:/12148/cb124195288;FRBNF12419528;http://isni.org/isni/0000000121911135;36382;20150914;FR;
4020;Opéra de Tours;;<p>Théâtre à l’Italienne conçu par l’architecte Jean-Marie Hardion en 1889, le Grand Théâtre présente chaque année une saison lyrique, symphonique, des spectacles jeune public ainsi que des concerts de musique de chambre, et accueille de nombreux spectacles ou ensembles. Benjamin Pionnier en assure la direction générale et artistique depuis 2016.</p> <p>Aujourd’hui seul opéra de la Région Centre, le Grand Théâtre est un lieu de création, de production et de diffusion de spectacles doté d’ateliers pour la confection des costumes, décors et accessoires et d’un chœur permanent. Animé par une exigence de qualité, le Grand Théâtre tient une place significative parmi les structures culturelles de la région et poursuit son objectif de faire découvrir la musique lyrique et symphonique à un large public.</p>;REGIAUF;38807806500025;http://ark.bnf.fr/ark:/12148/cb14659137k;FRBNF14659137;https://isni.org/isni/000000012166455X;36382;20150914;FR;https://www.tous-a-lopera.fr/opera-de-tours.aspx
4021;Opéra Grand Avignon;;<p>L’Opéra Grand Avignon véhicule une identité originale et une qualité artistique nationalement saluée. Il est aussi un lieu intimiste et chaleureux, un lieu patrimonial et de création extrêmement vivant et inventif. Sa programmation témoigne d’un équilibre judicieux entre les formes de spectacles les plus diverses : opéra, danse, théâtre et musique.</p> <p>La pluralité des manifestations proposées lui permet de bénéficier d’une large audience auprès de tous les publics. Elle réserve également une place significative au répertoire contemporain, ainsi qu'à la promotion de jeunes interprètes, chanteurs et musiciens.</p> <p>Par ailleurs, l’Opéra Grand Avignon poursuit ses opérations de sensibilisation du jeune public lors de générales et d’ateliers pédagogiques.</p> <p>Chaque année, ce beau théâtre à l’italienne du 19e siècle accueille plus de 70 000 spectateurs.</p>;REGCOM;24840025100141;http://ark.bnf.fr/ark:/12148/cb13619422d;FRBNF13619422;;36382;20150914;FR;https://www.tous-a-lopera.fr/opera-grand-avignon.aspx
4022;Opéra National de Bordeaux;;<p>L’Opéra National de Bordeaux (ONB) s’inscrit dans un réseau national et international d'institutions artistiques et culturelles, il constitue un pôle d’excellence dans les domaines lyrique, chorégraphique et musical et bénéficie depuis 2001 du label ministériel d’ « Opéra national en région ».</p> <p>Dirigé par Emmanuel Hondré depuis janvier 2022, l’Opéra National de Bordeaux propose sur ses deux scènes — le Grand-Théâtre et l’Auditorium—, la majeure partie de sa programmation (spectacles lyriques, chorégraphiques, symphoniques, concerts de jazz, musique de chambre, propositions pour le jeune public...).</p> <p>Le Grand-Théâtre, chef-d'œuvre de l'architecte Victor Louis datant du XVIIIe siècle, est une des étapes essentielles de la Route des théâtres historiques de France. Emblématique de la ville de Bordeaux, il compte parmi ses monuments les plus visités. Aujourd’hui, cette salle de 1100 places propose au public divers opéras, ballets, récitals...</p> <p>Résidence de l'Orchestre National Bordeaux Aquitaine et de son directeur musical Paul Daniel, l’Auditorium de Bordeaux ouvre à cette formation de nouvelles perspectives lui permettant à la fois d’élargir son répertoire à des œuvres pour très grand orchestre et d'ouvrir sa programmation au jazz, à l'électro... Ce nouveau temple de la musique compte 1440 places et la plus grande fosse d’orchestre d’Europe. Il est l’œuvre de l'architecte mélomane Michel Pétuaud-Létang et possède une acoustique exceptionnelle imaginée par l'expert acousticien belge Eckhard Kahle. Depuis son ouverture, l’Auditorium de Bordeaux a accueilli nombre d’artistes prestigieux dont Lang Lang, Karita Mattila, Jordi Savall, Ivo Pogorelich...</p> <p>L’ONB compte une équipe d’artistes permanents : 108 musiciens de l’Orchestre National Bordeaux Aquitaine, 35 danseurs du Ballet et 38 artistes du Chœur de l’Opéra National de Bordeaux, ainsi que des ateliers de fabrication (décors, accessoires, costumes, décoration costumes...) rassemblant 70 techniciens des arts de la scène.</p>;REGIEP;44042396000010;http://ark.bnf.fr/ark:/12148/cb12433013t;FRBNF12433013;https://isni.org/isni/0000000122982840;36382;20150914;FR;https://www.tous-a-lopera.fr/opera-national-de-bordeaux.aspx
4023;Opéra national de Lorraine;;<p>La scène lyrique nancéienne est devenue le 1er janvier 2006 le sixième opéra national de France.</p> <p>Tout entier tourné vers la création, l'Opéra national de Lorraine parcourt l'ensemble des répertoires, de la musique ancienne à la musique d'aujourd'hui. Grâce à diverses actions tout au long de l’année, il favorise l’accès à la culture de tous les publics.</p>;REGIEP;;http://ark.bnf.fr/ark:/12148/cb12433319q;FRBNF12433319;https://isni.org/isni/0000000122954647;36382;20150914;FR;https://www.tous-a-lopera.fr/opera-national-de-lorraine.aspx
4024;Opéra Orchestre national de Montpellier Occitanie;;<p>L’Opéra Orchestre national Montpellier Occitanie naît en 2001 de la fusion de deux structures existantes : l’Opéra de Montpellier, qui redevient dans le milieu des années 1980 un véritable centre de création et de production lyrique avec une saison complète et se dote d’un chœur en 1983, et l’Orchestre qui, à sa création en 1979, contribue à donner un nouvel élan à l’activité de l’opéra intra muros, en France et à l’étranger.</p> <p>Depuis 1990, la double structure dispose, en plus de la salle Molière et de la grand salle de l’Opéra Comédie, de l’Opéra Berlioz et de la Salle Pasteur au sein du Corum et peut ainsi accueillir près de 100 000 spectateurs chaque année.</p> <p>L’Opéra et l’Orchestre ont également tissé un réseau artistique et pédagogique dans l’agglomération et toute l'ancienne région Languedoc-Roussillon où ils sont présents au fil des saisons musicales.</p>;ASSO;35241579800029;http://ark.bnf.fr/ark:/12148/cb14658261g;FRBNF14658261;http://isni.org/isni/0000000122030209;36382;20150914;FR;https://www.tous-a-lopera.fr/opera-orchestre-national-montpellier-languedoc-roussillon.aspx
4025;Opéra national de Paris;;<p>L’Opéra national de Paris accueille annuellement près de 800.000 spectateurs pour assister, dans ses deux salles de l’Opéra Bastille et du Palais Garnier, à environ 420 représentations d’opéras et de ballets, des concerts, des récitals et des spectacles « jeune public ». Les spectateurs sont originaires principalement de Paris (38 %) et de la région parisienne (24 %) mais aussi des régions de France (13 %) et de l’étranger (25 %). L’âge moyen du spectateur est de 46 ans.</p>;EPIC;78439607900054;http://ark.bnf.fr/ark:/12148/cb118656463;FRBNF11865646;https://isni.org/isni/0000000123224603;36382;20150914;FR;https://www.tous-a-lopera.fr/opera-national-de-paris.aspx
4026;Opéra national du Rhin;;<p>L’Opéra national du Rhin (OnR) doit son caractère exemplaire à l'apport spécifique des trois villes qui le composent : Strasbourg, Mulhouse et Colmar. Syndicat intercommunal, l'OnR voit sa gestion assurée conjointement par les trois villes qui ont chacune leur propre activité créatrice : l'Opéra et la Maîtrise à Strasbourg, le Ballet de l'OnR – Centre chorégraphique national depuis 1985 – à Mulhouse, et l'Opéra Studio – cellule de formation pour jeunes chanteurs – à Colmar.</p> <p>L’OnR travaille en étroite collaboration avec l'Orchestre philharmonique de Strasbourg et l'Orchestre symphonique de Mulhouse qui assurent les productions lyriques et chorégraphiques. Il possède par ailleurs les plus grands ateliers de constructions de décor en France après ceux de Paris.</p> <p>La politique culturelle de l'Opéra national du Rhin, dirigé par Alain Perroux, se traduit par une programmation annuelle de plus de 138 représentations lyriques, 23 récitals et concerts, 44 soirées de ballet, 55 représentations de l’Opéra Studio et 64 représentations spécifiques jeune public (dont 24 scolaires), 18 événements particuliers soit un total de 223 levers de rideau. Après plus de quarante années d'existence, l'expérience alsacienne est devenue un modèle. Tout en demeurant farouchement attaché à ses racines régionales et européennes, l'Opéra national du Rhin s'est imposé comme une institution incontournable de la vie lyrique française et internationale, récompensé en novembre 1997 par l'obtention du label « Opéra national ».</p>;SYNDI;25670116000010;http://ark.bnf.fr/ark:/12148/cb124195315;FRBNF12419531;https://isni.org/isni/000000010790940X;36382;20150914;FR;https://www.tous-a-lopera.fr/opera-national-du-rhin.aspx
4027;Opéra de Limoges;;<p>L’Opéra de Limoges développe une politique lyrique, musicale et chorégraphique visant l’excellence des propositions artistiques, laissant place tant aux œuvres de patrimoine qu’à la création et se singularisant par une approche thématique de sa programmation dans une volonté de pédagogie des répertoires auprès des publics.</p> <p>Soutenue par un programme d’actions artistiques et éducatives structuré, les choix artistiques font une place prépondérante aux jeunes talents, qu’ils soient artistes chanteurs, metteurs en scène ou chefs d’orchestre, et positionnent l’Opéra de Limoges comme un pôle identifié de tremplin professionnel.</p> <p>L’orchestre, le chœur et le développement des coproductions participent au rayonnement régional, inter-régional et national de l’opéra tout en favorisant la diffusion des projets.</p>;REGIEP;20005650500015;http://ark.bnf.fr/ark:/12148/cb14658301w;FRBNF14658301;;36382;20150914;FR;https://www.tous-a-lopera.fr/opera-de-limoges.aspx
4028;Opéra de Saint-Étienne;;<p>Bénéficiant d'une notoriété nationale et internationale importante, l'Opéra de Saint-Étienne est une maison populaire dont le travail spécifique sur le répertoire romantique français est largement reconnu. Institution régionale incontournable sur le plan de la danse, l'Opéra propose également une saison Jeune Public particulièrement remarquable qui en fait un des acteurs majeurs du spectacle vivant pour l'enfance en France.</p> <p>En lien avec une saison de plus de 160 levers de rideau, l'Opéra développe enfin une politique d'éducation artistique extrêmement riche.</p>;REGIM;21420218602253;http://ark.bnf.fr/ark:/12148/cb135653310;FRBNF13565331;https://isni.org/isni/0000000119576876;36382;20150914;FR;https://www.tous-a-lopera.fr/opera-de-saint-etienne.aspx
4034;Chorégies d'Orange;;"<p>Les Chorégies d'Orange sont aujourd'hui le plus ancien festival français puisqu'elles datent de 1869. Mais elles ont su, au fil des ans, conserver toute leur originalité : par le nom qu'elles portent, issu du grec ""choréos"", qui les rattache ainsi à la tradition gréco-latine ; par le lieu dans lequel elles se déroulent chaque été : un théâtre antique parfaitement conservé d'une capacité d'accueil de 8 600 personnes et qui a le privilège d'avoir conservé son ""mur"", garantie d'une acoustique exceptionnelle ; par la vocation lyrique et musicale qu'elles se sont donné et qui leur permet d'être l’un des grands festivals français doté d’une incontestable réputation internationale.</p>";SPL;84236891200015;http://ark.bnf.fr/ark:/12148/cb120849983;FRBNF12084998;;36382;20150914;FR;https://www.tous-a-lopera.fr/choregies-dorange.aspx
4052;Angers Nantes Opéra;;<p>Créé à l’initiative des deux villes, Nantes et Angers, Angers Nantes Opéra est financé par le Ministère de la Culture – DRAC Pays de la Loire, les villes de Nantes et d’Angers, le Conseil Régional des Pays de la Loire et les Conseils Généraux de Loire-Atlantique et de Maine-et-Loire.</p> <p>Au rythme de 5 à 7 productions lyriques par saison avec 8 représentations en moyenne par spectacle, Angers Nantes Opéra s’attache à présenter l’ensemble du répertoire – de Monteverdi à nos jours – en programmant chaque saison une création d’opéra d’aujourd’hui ainsi qu’au moins un opéra du XXe siècle, sans oublier les opéras du « grand répertoire ».</p> <p>Avec la volonté de multiplier le nombre de représentations et les lieux de diffusion, Angers Nantes Opéra met en œuvre des coproductions avec les différentes maisons d’opéras telles Rennes, Lille, Marseille, Nancy, Avignon, Vichy, Lausanne, Luxembourg.<p/>;SYNDMI;25490250500018;http://ark.bnf.fr/ark:/12148/cb14658931g;FRBNF14658931;;36382;20150914;FR;https://www.tous-a-lopera.fr/angers-nantes-opera.aspx
4062;Opéra de Lille;;<p>Depuis sa réouverture en décembre 2003, l’Opéra de Lille propose une programmation lyrique variée qui s’étend de la période baroque aux créations d’œuvres de compositeurs d’aujourd’hui, sans oublier les grands chef-œuvres du répertoire.</p> <p>La danse contemporaine joue également un rôle de premier plan : la programmation rend compte des grandes orientations esthétiques actuelles mises en perspectives par la présentation en parallèle d’œuvres fondatrices.</p> <p>D’autres rendez-vous artistiques sont proposés afin de faciliter l’accès de tous les publics à l’Opéra : les Concerts du Mercredi à 18h, les Happy Days (journées portes ouvertes et thématiques) et une sélection de spectacles à découvrir en famille.</p>;EPIC;50139429000016;http://ark.bnf.fr/ark:/12148/cb131817206;FRBNF13181720;https://isni.org/isni/0000000121837625;36382;20150914;FR;https://www.tous-a-lopera.fr/opera-de-lille.aspx
4063;Opéra de Rennes;;<p>Choix artistiques forts et diversité affirmée constituent la marque de fabrique de l'Opéra de Rennes. Cette maison de production hospitalière et conviviale fait rimer excellence et ambition avec une dimension festive et populaire. En plus de ses deux ensembles en résidence, le Choeur Mélisme(s) et le Banquet Céleste, l'Opéra de Rennes a noué une étroite collaboration avec Angers Nantes Opéra et a rejoint le réseau national La Co(opéra)tive.</p> <p>Seule Maison lyrique de Bretagne, l'Opéra de Rennes effectue chaque année une tournée régionale. Et à Rennes, L'Opéra réinvente chaque saison ses collaboration avec l'Orchestre Symphonique de Bretagne, le Théâtre National de Bretagne, les Trans Musicales... pour décloisonner les pratiques culturelles des Rennaises et des Rennais et leur offrir une programmation métissée au croisement des arts et des disciplines.</p> <p>L'Opéra de Rennes organise également de nombreux temps participatifs et gratuits pour permettre à chacun de vivre une expérience sensible avec l'opéra : répétitions ouvertes au public, rencontres ateliers sur la voix ou le maquillage de scène, expositions, parcours de découvertes en plusieurs étapes avec les professionels-relais de l'enseignement, des structures sociales, médico-sociales et socio-culturelles, des écoles de musique et de danse, des prisons...ou mise en place de choeurs éphémères associant des habitant.e.s et des professionnel.le.s pour découvrir le chant choral.</p> <p>Enfin l'Opéra de Rennes se cacactérise par son lien au numérique et sa capacité d'innovation et d'expérimentation avec la diffusion de spectacles en direct sur Internet grâce à un partenariat avec le Centre de ressources et d'études audiovisuelles de l'Université Rennes 2 ou la création d'une visite de l'opéra en réalité virtuelle et en son immersif réalisée avec des start-up locales.</p>;REGIM;21350238800076;http://ark.bnf.fr/ark:/12148/cb136078831;FRBNF13607883;https://isni.org/isni/0000000121778776;36382;20150914;FR;https://www.tous-a-lopera.fr/opera-de-rennes.aspx
4075;Opéra national de Lyon;;<p>L’Opéra de Lyon reconstruit par Jean Nouvel, inauguré en 1993, est une des plus belles réussites de la seconde moitié du XXe siècle. L’architecte établit un « dialogue entre histoire et modernité », capitalisant sur les espaces, multipliant les volumes, intégrant les quatre murs d’origine et le foyer du public dans un bâtiment résolument contemporain. Chef-d’œuvre au service des chefs-d’œuvre, la modernité de l’Opéra de Lyon nous rappelle combien l’opéra, la musique et la danse doivent rester des arts contemporains.</p>;ASSO;33939102100013;http://ark.bnf.fr/ark:/12148/cb12466015v;FRBNF12466015;http://isni.org/isni/0000000121766935;36382;20150914;FR;https://www.tous-a-lopera.fr/opera-national-de-lyon.aspx
4076;Opéra de Massy;;<p>L’Opéra de Massy est inauguré en octobre 1993 et dirigé depuis par Jack-Henri Soumère. Première structure à être labellisée « scène conventionnée lyrique », l’Opéra de Massy s’affirme aujourd’hui comme un lieu de production artistique de référence et participe à une action de développement culturel à l’échelle régionale. Donnant la part belle aux jeunes chanteurs lyriques français, la programmation allie grands classiques lyriques et créations contemporaines, tout en développant une programmation familiale. Seul opéra situé en banlieue, l'Opéra de Massy se veut une salle atypique avec un ancrage local permettant de faire rayonner l'art lyrique en Île-de-France.</p>;;53043215200011;http://ark.bnf.fr/ark:/12148/cb14657191w;FRBNF14657191;;36382;20150914;FR;https://www.tous-a-lopera.fr/opera-de-massy.aspx
4077;Opéra Royal de Versailles;;"<p>La construction de l'Opéra de Versailles marque l'aboutissement de près d'un siècle de recherches, d'études et de projets : car, s'il n'a été édifié qu'à la fin du règne de Louis XV, il a été prévu dès 1682, date de l'installation de Louis XIV à Versailles.</p> <p>Le Roi, en effet, avait chargé Hardouin-Mansart et Vigarani de dresser les plans d'une salle des ballets, et l'architecte en avait réservé l'emplacement à l'extrémité de l'aile neuve, qui allait s'élever au cours des années suivantes. Le choix de cet emplacement était, au demeurant, fort judicieux : la proximité des réservoirs constituait un élément de sécurité en cas d'incendie, et la forte déclivité du terrain permettait d'obtenir, pour la scène, des ""dessous"" importants sans qu'il soit nécessaire de creuser profondément; aussi bien ce choix ne fut-il jamais remis en question par les successeurs de Mansart. Les travaux de gros œuvre furent commencés dès 1685, mais furent vite interrompus en raison de guerres et des difficultés financières de la fin du règne.</p> <p>Louis XV, à son tour, recula longtemps devant la dépense, de sorte que, pendant près d'un siècle, la cour de France dut se contenter d'une petite salle de comédie aménagée sous le passage des Princes. Louis XV résolut cependant d'édifier une salle définitive dont il confia le projet à son Premier architecte, Gabriel. Cependant, la réalisation de ce grand dessein devait demander plus de vingt ans.</p> <p>C’est seulement en 1768 que le roi, en prévision des mariages successifs de ses petits-enfants, se décida enfin à donner l’ordre de commencer les travaux. Ceux-ci furent poussés activement et l’Opéra, achevé en vingt-trois mois, fut inauguré le 16 mai 1770, jour du mariage du Dauphin avec l’archiduchesse Marie Antoinette, avec une représentation de Persée de Quinault et Lully. En 2020 l'Opéra Royal de Versailles fête ses 250 ans.</p> <p>En septembre 2009, l’Opéra Royal de Versailles, restauré après des travaux de mise en sécurité, a réouvert au public. Depuis, Château de Vesailles propose une centaine de levers de rideau chaque année et une programmation lyrique, musicale et chorégraphique qui accueille ensembles et artistes français et internationaux prestigieux. Cecilia Bartoli, Philippe Jaroussk, Marc Minkowski, Raphaël Pichon, Leonardo García Alarcón, Jordi Savall, Sir John Eliot Gardiner, Angelin Preljocaj, Sébastien Daucé, Franco Fagioli, Jean-Christophe Spinosi, Robert King y côtoient Hervé Niquet, William Christie, Sébastien d'Hérin, Vincent Dumestre..</p>";SASU;45129061300020;http://ark.bnf.fr/ark:/12148/cb14657394g;FRBNF14657394;https://isni.org/isni/0000000121758951;36382;20150914;FR;https://www.tous-a-lopera.fr/opera-royal-de-versailles.aspx
4080;Théâtre de Caen;;<p>Scène conventionnée d'intérêt national art et création pour l'art lyrique et lieu de résidence de l’ensemble Correspondances dirigé par Sébastien Daucé, le théâtre de Caen s'investit dans un réseau de coproduction international pour la création d'opéras, notamment baroques. Projet unique en France, le théâtre de Caen a pour singularité d’ouvrir sa programmation à l’ensemble des genres du spectacle vivant. Opéra, concert, théâtre, théâtre musical, danse, nouveau cirque, jazz, culture du monde… chaque spectacle allie exigence artistique et ouverture au plus grand nombre. Le projet culturel du théâtre de Caen crédité par une fréquentation autour de 135 000 spectateurs chaque saison, accorde par ailleurs une place importante à la gratuité (plus de 50 manifestations).</p>;BUDGA;21140118700037;http://ark.bnf.fr/ark:/12148/cb11878759n;FRBNF11878759;https://isni.org/isni/0000000119413372;36382;20150914;FR;https://www.tous-a-lopera.fr/theatre-de-caen.aspx
4082;Opéra national Capitole Toulouse;;<p>Maison d’opéra fondée au XVIIIe siècle et située dans l’enceinte du Capitole de Toulouse, le Théâtre du Capitole est doté d’un chœur et d’un ballet permanents ainsi que d’ateliers de décors et de costumes. Ses spectacles sont servis par l’Orchestre national du Capitole. Sa programmation diversifiée est ouverte à la création contemporaine en écho aux grands titres du répertoire.</p> <p>Le Théâtre du Capitole accueille également un Concours International de Chant lyrique fondé par la Ville de Toulouse en 1954.</p> <p>Le Théâtre du Capitole conduit depuis quelques années une politique volontariste d’ouverture à tous les publics nourrie par de multiples actions d’éducation artistique et une présence sur tout le territoire de la métropole toulousaine.</p>;EPA;24310051800204;http://ark.bnf.fr/ark:/12148/cb12407579g;FRBNF12407579;https://isni.org/isni/0000000121718474;36382;20150914;FR;
49287;Atelier lyrique de Tourcoing;;<p>L’Atelier Lyrique de Tourcoing s’affirme comme une scène lyrique originale de création et de diffusion d’opéra et de concerts depuis 1981. Bien ancré dans la région Hauts-de-France, l’Atelier Lyrique est un laboratoire d’épanouissement de toutes les créations originales et de qualité.</p> <p>Une ambition : offrir le meilleur de la scène lyrique à toutes et tous en proposant une diversité d’actions sociales et pédagogiques, une politique tarifaire étudiée et adaptée au territoire, une forte recherche de diversité, une proximité avec le public, un travail avec de nombreux amateurs.</p> <p>Son directeur François-Xavier Roth entreprend de continuer l’œuvre de son fondateur et ancien directeur Jean-Claude Malgoire (1940-2018) qui avait à cœur de permettre au public de découvrir ou de se familiariser avec les grandes œuvres du répertoire, toujours servies par de jeunes professionnels.</p> <p>L’ouverture à la jeunesse fait partie de l’ADN de la structure. Avec la création en 2019 de la résidence-tremplin Jean-Claude Malgoire, qui a pour but de promouvoir les ensembles émergents, l’Atelier Lyrique renforce son rôle de catalyseur et d’accompagnateur de jeunes talents.</p> <p>L’Atelier Lyrique de Tourcoing, c’est aussi une réelle volonté de se nourrir des compétences des uns et des autres, à travers de nombreuses collaborations avec les différents acteurs du secteur (coproductions, partenariats, travail en synergie avec diverses scènes régionales et nationales).</p> <p>La structure est souple, légère, et servie par une équipe de 11 passionné·es de spectacle et d’humanité.</p>;ASSO;;http://ark.bnf.fr/ark:/12148/cb12146152d;FRBNF12146152;http://isni.org/isni/0000000122924659;36382;20200910;FR;https://www.tous-a-lopera.fr/tous-a-lopera/atelier-lyrique-de-tourcoing.aspx
53947;Théâtre du Châtelet;;<p>Le Théâtre du Châtelet est une association loi 1901 subventionnée par la Ville de Paris, consacrée à l’art lyrique sous toutes ses formes, à la musique symphonique et instrumentale et à l’art chorégraphique.</p> <p>Fort d'une équipe de 110 salariés permanents représentant tous les métiers du théâtre, le Théâtre du Châtelet produit et accueille chaque année une trentaine de spectacles (opéras, comédies musicales, ballets, concerts...) parmi les plus importants à Paris.</p>;ASSO;;http://ark.bnf.fr/ark:/12148/cb122170689;FRBNF12217068;http://isni.org/isni/0000000121644372;36382;20211203;FR;https://www.tous-a-lopera.fr/theatre-du-chatelet.aspx
